{
"swagger":"2.0",
"info": {
    "title": "Full Potential Solutions API",
    "description": "Full Potential Solutions Dashboard",
    "version": "1.0.1"
  },
"host": "api-stg.fpsinc.com",
"basePath": "/dashboard-api/index.php/api/",
"schemes": [
    "https"
  ],
"paths": {


"/messagelist": {
    "get": {
      "tags": [
        "Message of the Day "
        ],
      "operationId": "getMessageList",  
      "summary":  "Get the list of messages in message table",
      "description": "Returns messages list from database",
      "produces": [
        "application/json"
      ],
      "responses": {
      "200": {
        "description": "successful operation",
        "schema": {
          "type": "object",
           "items": {
            "$ref": "#/definitions/message"
          }
          
          }
        }
      }
    }
  },

"/messageoftheday": {
    "get": {
      "tags": [
        "Message of the Day "
        ],
      "operationId": "getMessage",  
      "summary":  "Get the active messages list in message table",
      "description": "Returns messages list from database",
      "produces": [
        "application/json"
      ],
      "responses": {
      "200": {
        "description": "successful operation",
        "schema": {
          "type": "object",
           "items": {
            "$ref": "#/definitions/message"
          }
          
          }
        }
      }
    }
  },
  
  "/add_messageoftheday": {
    "post": {
      "tags": [
        "Message of the Day "
        ],
      "operationId": "addMessageoftheday",  
      "summary":  "Insert Message of the day",
      "description": "",
      "consumes": [ "multipart/form-data" ],
      
      "produces": [
        "application/json"
      ],
      "parameters" : [{
      "name": "title",
      "in": "formData",
      "description": "Message of the day title",
      "required": true,
      "type": "string"
      
    },{
      "name": "date",
      "in": "formData",
      "description": "Start date - Ex: YYYY-MM-DD HH:MM:SS",
      "required": true,
      "type": "string"
    },{
      "name": "enddate",
      "in": "formData",
      "description": "End date - Ex: YYYY-MM-DD HH:MM:SS",
      "required": true,
      "type": "string"
    },
    {
      "name": "fileToUpload",
      "in": "formData",
      "description": "only JPG, JPEG, PNG & GIF files are allowed.",
      "type": "file"
    },{
      "name": "message",
      "in": "formData",
      "description": "Message of the day content ",
      "required": true,
      "type": "string"
    }],
      "responses": {
      "200": {
        "description": "successful operation",
        
        "schema": {
          "type": "object",
           "items": {
            "$ref": "#/definitions/message"
          }
          
          }
        }
      }
    }
  },
  "/update_messageoftheday/":{
    "post": {
      "tags": [
        "Message of the Day "
        ],
      "operationId": "updateMessageoftheday",  
      "summary":  "Update Message of the day",
      "description": "",
      "consumes": [ "multipart/form-data" ],
      "produces": [
        "application/json"
      ],
      "parameters" : [{
      "name": "mid",
      "in": "formData",
      "description": "message id",
      "required": true,
      "type": "integer",
      "format": "int64"
    },{
      "name": "title",
      "in": "formData",
      "description": "Message of the day title",
      "required": true,
      "type": "string"
    },{
      "name": "date",
      "in": "formData",
      "description": "Start date - Ex: YYYY-MM-DD HH:MM:SS",
      "required": true,
      "type": "string"
    },{
      "name": "enddate",
      "in": "formData",
      "description": "End date - Ex: YYYY-MM-DD HH:MM:SS",
      "required": true,
      "type": "string"
    },
    {
      "name": "image",
      "in": "formData",
      "description": "only JPG, JPEG, PNG & GIF files are allowed.",
     
      "type": "file"
    },{
      "name": "message",
      "in": "formData",
      "description": "Message of the day content ",
      "required": true,
      "type": "string"
    }],
      "responses": {
      "200": {
        "description": "successful operation",
        "schema": {
          "type": "object",
          "items": {
            "$ref": "#/definitions/message"
          }
          }
        }
      }
    }
  }, 
  
  "/deletemessage/{mId}": {
    "delete": {
        "tags": 
        [
          "Message of the Day "
        ],
        "summary": "Delete message ",
        "description": "Delete message",
        "parameters": [{
            "name": "mId",
            "in": "path",
            "description": "ID of the order that needs to be deleted",
            "required": true,
            "type": "integer",
            "minimum": 1,
            "format": "int64"
          }
        ],
        "responses": {
      "200": {
        "description": "successful operation",
        "schema": {
          "type": "object",
           "items": {
            "$ref": "#/definitions/message"
          }
          }
        }
      }
    }
      },
  "/dispolist": {
    "get": {
      "tags": [
        "Dispo List"
        ],
      "operationId": "getdispolist",  
      "summary":  "Get the dispo list",
      "description": "Returns dispo list from database",
      "produces": [
        "application/json"
      ],
      "responses": {
      "200": {
        "description": "successful operation",
        "schema": {
          "type": "object",
           "items": {
            "$ref": "#/definitions/sprint_post_call_retention_dispo"
          }
          }
        }
      }
    }
  },  
  
"/agents": {
    "get": {
      "tags": [
        "Agent List"
        ],
      "operationId": "getAgentList",  
      "summary":  "Get the list of agents",
      "description": "Returns agent list from database",
      "produces": [
        "application/json"
      ],
      "responses": {
      "200": {
        "description": "successful operation",
        "schema": {
          "type": "object",
          "items": {
            "$ref": "#/definitions/employee"
          }
          }
        }
      }
    }
  },
  "/managers": {
    "get": {
      "tags": [
        "Manager"
        ],
      "operationId": "getManagerList",  
      "summary":  "Get the list of managers",
      "description": "Returns managers list from database",
      "produces": [
        "application/json"
      ],
      "responses": {
      "200": {
        "description": "successful operation",
        "schema": {
          "type": "object",
          "items": {
            "$ref": "#/definitions/employee"
          }
          
          }
        }
      }
    }
  },
  
  "/ManagerStats/{eid}/{month}/{role_id}": {
    "put": {
      "tags": [
        "Manager"
        ],
      "operationId": "getManagerStats",  
      "summary":  "Get the list of managers",
      "description": "Returns managers list from database",
      "produces": [
        "application/json"
      ],
      "parameters" : [{
      "name": "eid",
      "in": "path",
      "description": "Employee id",
      "required": true,
      "type": "number"
    },{
      "name": "month",
      "in": "path",
      "description": "month",
      "required": true,
      "type": "string"
    },{
      "name": "role_id",
      "in": "path",
      "description": "manager role id",
      "required": true,
      "type": "number"
    }],
      "responses": {
      "200": {
        "description": "successful operation",
        "schema": {
          "type": "object",
          "items": {
            "$ref": "#/definitions/fact_agent_scorecard_sprint_b"
          }
          
          
          }
        }
      }
    }
  },
  
  "/escalation": {
    "get": {
      "tags": [
        "Escalation"
        ],
      "operationId": "getEscalationList",  
      "summary":  "Get the list of agents",
      "description": "Returns agent list from database",
      "produces": [
        "application/json"
      ],
      "responses": {
      "200": {
        "description": "successful operation",
        "schema": {
          "type": "object",
          "items": {
            "$ref": "#/definitions/escalations"
          }
          
          }
        }
      }
    }
  },
  
  "/get_PostCallRetention/{call_datetime}/{eid}/{ban}": {
    "get": {
      "tags": [
        "Post Call Retention"
        ],
      "operationId": "getPostCallRetention",  
      "summary":  "Get the Call Disposition",
      "description": "Returns agent list from database",
      "produces": [
        "application/json"
      ],
      "parameters" : [{
      "name": "call_datetime",
      "in": "path",
      "description": "call date time",
      "required": true,
      "type": "string"
    },{
      "name": "eid",
      "in": "path",
      "description": "Employee id",
      "required": true,
      "type": "number"
    },{
      "name": "ban",
      "in": "path",
      "description": "Ban number",
      "required": true,
      "type": "number"
    }],
    
      "responses": {
      "200": {
        "description": "successful operation",
        "schema": {
          "type": "object",
          "items": {
            "$ref": "#/definitions/sprint_post_call_retention"
          }
          
          }
        }
      }
    }
  },
   
  "/update_PostCallRetention/": {
    "put": {
      "tags": [
        "Post Call Retention"
        ],
      "operationId": "updatePostCallRetention",  
      "summary":  "Update the Call Disposition",
      "description": "Update Disposition database",
      "consumes": [ "multipart/form-data" ],
      "produces": [
        "application/json"
      ],
      "parameters" : [{
      "name": "call_datetime",
      "in": "formData",
      "description": "call date time",
      "required": true,
      "type": "string"
    },{
      "name": "eid",
      "in": "formData",
      "description": "Employee id",
      "required": true,
      "type": "number"
    },{
      "name": "ban",
      "in": "formData",
      "description": "Ban number",
      "required": true,
      "type": "number"
    },{
      "name": "employee_name",
      "in": "formData",
      "description": "employee name",
      
      "type": "string"
    },{
      "name": "dispo_id",
      "in": "formData",
      "description": "",
     
      "type": "string"
    },{
      "name": "called_yn",
      "in": "formData",
      "description": "",
    
      "type": "string"
    },{
      "name": "contacted_yn",
      "in": "formData",
      "description": "",
      
      "type": "string"
    },{
      "name": "voicemail_yn",
      "in": "formData",
      "description": "",
      
      "type": "string"
    },{
      "name": "opportunity_yn",
      "in": "formData",
      "description": "",
      
      "type": "string"
    },{
      "name": "save_yn",
      "in": "formData",
      "description": "",
      
      "type": "string"
    },{
      "name": "rpo_upg_both",
      "in": "formData",
      "description": "",
      
      "type": "string"
    },{
      "name": "at_risk_yn",
      "in": "formData",
      "description": "",
      
      "type": "string"
    },{
      "name": "notes",
      "in": "formData",
      "description": "",
      "type": "string"
    }],
    
      "responses": {
      "200": {
        "description": "successful operation",
        "schema": {
          "type": "object",
          "items": {
            "$ref": "#/definitions/sprint_post_call_retention"
          }
          
          }
        }
      }
    }
  },
   
  "/get_areachrat/{eid}/{day_month}/{chart_data}": {
    "get": {
      "tags": [
        "Dashboard"
        ],
      "operationId": "getareachart",  
      "summary":  "Get the Area chart",
      "description": "Returns Area chart list from database",
      "produces": [
        "application/json"
      ],
      "parameters" : [{
      "name": "eid",
      "in": "path",
      "description": "Employee id",
      "required": true,
      "type": "number"
    },{
      "name": "day_month",
      "in": "path",
      "description": "DAY or MONTH",
      "required": true,
      "type": "string"
    },{
      "name": "chart_data",
      "in": "path",
      "description": "Table column name",
      "required": true,
      "type": "string"
    }],
    
      "responses": {
      "200": {
        "description": "successful operation",
        "schema": {
          "type": "object"
          
          }
        }
      }
    }
  },
  "/get_gauges/{eid}/{GaugesData}": {
    "get": {
      "tags": [
        "Dashboard"
        ],
      "operationId": "getgauges",  
      "summary":  "Get the gauges data",
      "description": "Returns gauges data from database",
      "produces": [
        "application/json"
      ],
      "parameters" : [{
      "name": "eid",
      "in": "path",
      "description": "Employee id",
      "required": true,
      "type": "number"
    },{
      "name": "GaugesData",
      "in": "path",
      "description": "PreviousBusinessDay/CurrentMonth",
      "required": true,
      "type": "string"
    }],
    
      "responses": {
      "200": {
        "description": "successful operation",
        "schema": {
          "type": "object"
          
          }
        }
      }
    }
  },
  "/get_agent_scorecard_sprint/{eid}/{month}": {
    "get": {
      "tags": [
        "Dashboard"
        ],
      "operationId": "scorecardsprint",  
      "summary":  "Get the gauges data",
      "description": "Returns gauges data from database",
      "produces": [
        "application/json"
      ],
      "parameters" : [{
      "name": "eid",
      "in": "path",
      "description": "Employee id",
      "required": true,
      "type": "number"
    },{
      "name": "month",
      "in": "path",
      "description": "Month",
      "required": true,
      "type": "string"
    }],
    
      "responses": {
      "200": {
        "description": "successful operation",
        "schema": {
          "type": "object",
          
          
          }
        }
      }
    }
  }
},




  "definitions": {
    "message": {
      "type": "object",
      "properties": {
        "id": {
          "type": "integer"
          
        },
        "title": {
          "type": "string",
          
        },
        "message": {
          "type": "string",
          
        },
        "date": {
          "type": "string",
          "format": "date-time"
        },
        "enddate": {
          "type": "string",
          "format": "date-time"
        },
         "image": {
          "type": "string"
         
        },
        "created":{
          "type":"string" ,
          "format":"data-time"
        },
        "status": {
          "type": "integer",
          "description": "Status",
          "enum": [
            {"1":"active",
            "0":"inactive"}
          ]
        }
      }
    },
     " role_target_action": {
      "type": "object",
      "properties": {
        "rta_id": {
          "type": "integer"
          
        },
        "role_id": {
          "type": "integer",
          
        },
        "screen_id": {
          "type": "integer",
          
        },
        "action": {
          "type": "integer",
          "description": "Action",
          "enum": [
            {"1":"Inactive",
            "2":"Active"}
          ]
        }
      }
    },
     "employee": {
      "type": "object",
      "properties": {
        "uid": {
          "type": "integer"
          
        },
        "employee_name": {
          "type": "string",
          
        },
        "eid": {
          "type": "integer",
          "format":"int32"
          
        },
        "status": {
          "type": "string",
          
        },
        "supervisor_eid": {
          "type": "string",
          "format": "integer"
        },
         "job_title": {
          "type": "string"
         
        },
        "salary_type":{
          "type":"string"
        },
        "department":{
          "type":"string"
        },
        "division":{
          "type":"string"
        },
        "location":{
          "type":"string"
        },
        "hire_date":{
          "type":"string",
          "format":"date"
        },
        "termination_date":{
          "type":"string",
          "format":"date"
        },
        "from_date":{
          "type":"string",
          "format":"date"
        },
        "to_date":{
          "type":"string",
          "format":"date"
        },
        "email":{
          "type":"string"
          
        },"ad_username":{
          "type":"string"
          
        },"badge_number":{
          "type":"string"
          
        },"training_wave":{
          "type":"string"
          
        },
        "dob":{
          "type":"string",
          "format":"date"
          
        },"gender":{
          "type":"string"
          
        },"parameter":{
          "type":"string"
          
        },"updated_timestamp":{
          "type":"string",
          "format":"date-time"
          
        }
      }
    },
     "escalations": {
      "type": "object",
      "properties": {
        "calldatetime": {
          "type": "string",
          "format":"date-time"
          
        },
        "agentname": {
          "type": "string"
          
        },
        "customername": {
          "type": "string"
        },
        "bannumber": {
          "type": "string",
          
        },
        "marketvalue": {
          "type": "string"
        },
         "nolines": {
          "type": "integer",
          "format": "int11"
        },
        "nbaoffers":{
          "type":"string"
        },
        "nbareason":{
          "type":"string"
        },
        "description":{
          "type":"string"
        },
        "stepstaken":{
          "type":"string"
        },
        "customerdesire":{
          "type":"string"
        },
        "manager":{
          "type":"string"
        },
        "callbackdatetime":{
          "type":"string",
          "format": "date-time"
        },
        "status":{
          "type":"string"
        }
      }
    },
    
     "sprint_post_call_retention_dispo": {
      "type": "object",
      "properties": {
        "dispo_id": {
          "type": "integer",
          "format":"int5"
        },
        "dispo_name": {
          "type": "string"
          
        },
        "active": {
          "type": "string"
        }
      }
    },
    
     "sprint_post_call_retention": {
      "type": "object",
      "properties": {
        "call_datetime": {
          "type": "string",
          "format":"date-time"
        },
        "eid": {
          "type": "integer",
          "format":"int11"
          
        },
        "employee_name": {
          "type": "string"
        },
        "supervisor_eid": {
           "type": "integer",
          "format":"int11"
        },
        "ani": {
           "type": "string"
        },
        "ban": {
           "type": "string"
        },
        "duration": {
           "type": "integer",
          "format":"int11"
        },
        "ab_group": {
          "type": "string"
        },
        "top_quartile": {
            "type": "integer",
          "format":"int3"
        },
        "deact": {
            "type": "integer",
          "format":"int3"
        },
        "5min": {
            "type": "integer",
          "format":"int3"
        },
        "mtv10": {
            "type": "integer",
          "format":"int3"
        },
        "mtv5": {
            "type": "integer",
          "format":"int3"
        },
        "detractor": {
            "type": "integer",
           "format":"int3"
        },
        "callbacks": {
            "type": "integer",
           "format":"int3"
        },
        "contacted": {
            "type": "integer",
           "format":"int3"
        },
        "assigned_eid": {
            "type": "string"
        },
        "dispo_id": {
            "type": "integer",
           "format":"int6"
        },
        "called_yn": {
           "type": "string"
        },
        "contacted_yn": {
           "type": "string"
        },
        "voicemail_yn": {
           "type": "string"
        },
        "opportunity_yn": {
           "type": "string"
        },
        "save_yn": {
           "type": "string"
        },
        "rpo_upg_both": {
           "type": "string"
        },
        "at_risk_yn": {
           "type": "string"
        },
        "notes": {
           "type": "string"
        }
      }
    },
    
     "fact_agent_scorecard_sprint_b": {
      "type": "object",
      "properties": {
        "month": {
          "type": "string",
          "format":"date"
        },
        "eid": {
          "type": "integer",
           "format":"int11"
        },
        "supervisor_eid": {
           "type": "integer",
           "format":"int11"
        },
        "business_days": {
           "type": "integer",
           "format":"int3"
        },
        "ib_calls_handled": {
           "type": "integer",
           "format":"int5"
        },
        "aht": {
           "type": "integer",
           "format":"int5"
        },
        "aht_target": {
           "type": "integer",
           "format":"int5"
        },
        "aht_ptg": {
           "type": "number"
        },
        "twenty_plus_call_days": {
           "type": "integer",
           "format":"int5"
        },
        "twenty_plus_call_days_target": {
           "type": "integer",
           "format":"int5"
        },
        "handle_time": {
           "type": "integer",
           "format":"int10"
        },
        "days_scheduled": {
           "type": "integer",
           "format":"int5"
        },
        "days_worked": {
           "type": "integer",
           "format":"int5"
        },
        "hours_worked": {
           "type": "integer",
           "format":"int5"
        },
        "handset_deacts": {
           "type": "integer",
           "format":"int5"
        },
        "nba_launched": {
           "type": "integer",
           "format":"int5"
        },
        "nba_used": {
           "type": "integer",
           "format":"int5"
        },
        "deact_rate": {
           "type": "number"
        },
        "deact_rate_target": {
           "type": "number"
        },
        "deact_rate_ptg": {
           "type": "number"
        },
        "pic0_rate": {
           "type": "number"
        },
        "pic0_target": {
           "type": "number"
        },
        "pic0_ptg": {
           "type": "number"
        },
        "pic7_rate": {
           "type": "number"
        },
        "pic7_target": {
           "type": "number"
        },
        "pic7_ptg": {
           "type": "number"
        },
        "pic14_rate": {
           "type": "number"
        },
        "pic14_target": {
           "type": "number"
        },
        "pic14_ptg": {
           "type": "number"
        },
        "pic30_rate": {
           "type": "number"
        },
        "pic30_target": {
           "type": "number"
        },
        "pic30_ptg": {
           "type": "number"
        },
        "nba_compliance_rate": {
           "type": "number"
        },
        "nba_compliance_target": {
           "type": "number"
        },
        "nba_compliance_ptg": {
           "type": "number"
        },
        "nba_launch_rate": {
           "type": "number"
        },
        "nba_launch_rate_target": {
           "type": "number"
        },
        "nba_launch_rate_ptg": {
           "type": "number"
        },
        "nba_usage_rate": {
           "type": "number"
        },
        "nba_usage_rate_target": {
           "type": "number"
        },
        "nba_usage_rate_ptg": {
           "type": "number"
        }
        
      }
    }
  }
}
